api\Article$ArticleBuilder.class
service\ArticleService.class
RunCucumberTest.class
api\Article.class
impl\ArticleServiceImpl.class
config\TestConfig.class
context\RunContext.class
steps\BasicPageDef.class
steps\HomePageDef.class
steps\Hooks.class
steps\SignInPageDef.class
steps\ArticleMyStepdefs.class
